INDEX VERSION 1.127+/Users/prajaktajoshi/drools_poc/.metadata/.plugins/org.eclipse.jdt.core
1753319412.index
2315212869.index
4238018145.index
4036230714.index
3131291862.index
3966227675.index
3735975305.index
1271342938.index
2363563081.index
404199878.index
630415656.index
4261102252.index
1027811935.index
1315525803.index
3725294424.index
2003470445.index
3214383198.index
3447526209.index
4157850747.index
1618553749.index
3670248649.index
506999199.index
1889472283.index
665221739.index
1969767409.index
4076381711.index
2979822034.index
1130798909.index
1275533697.index
182336382.index
3767115374.index
1523923554.index
2605015450.index
59091114.index
1674356049.index
2867016645.index
3269218581.index
1371320128.index
3416361290.index
1067258947.index
521061135.index
2634225966.index
