<?xml version="1.0" encoding="UTF-8"?>
<session version="1.0">
<refactoring comment="Copy package &apos;rules&apos; to &apos;CityTaxDrools/src/main/resources&apos;&#x0A;- Original project: &apos;DroolsPoc&apos;&#x0A;- Destination element: &apos;CityTaxDrools/src/main/resources&apos;&#x0A;- Original element: &apos;DroolsPoc/src/main/resources/rules&apos;" description="Copy package" destination="=CityTaxDrools/src\/main\/resources" element1="/src\/main\/resources&lt;rules" flags="589830" fragments="1" id="org.eclipse.jdt.ui.copy" policy="org.eclipse.jdt.ui.copyPackages" stamp="1467111188557" version="1.0"/>
</session>